{

    "request": {
        "method": "GET",
        "url": "/api/Lots/GetLot?appType=0&language=0&details=0&lotNumber=IPCCCALG000264&appMinorVersion=1&operatingSystem=0&appMajorVersion=100&appUTCOffset=5&lotName="
    },
    "response": {
      "status": 200,
      "headers": {
        "Cache-Control" : "no-cache",
        "Pragma" : "no-cache",
        "Content-Type" : "application/json; charset=utf-8",
        "Expires" : "-1",
        "vary": "Accept-Encoding",
        "Server" : "Microsoft-IIS/10.0",
        "X-AspNet-Version" : "4.0.30319",
        "request-context": "appId=cid-v1:678673fc-c07c-42bb-bf34-444a4900b7c4",
        "access-control-expose-headers": "Request-Context",
        "set-cookie": "ARRAffinity=beeff3476d5aa8bb8fe21fe39a9856f0b551707a1eb8622865ab9734ed4556f5;Path=/;HttpOnly;Domain=hangtag-uat-api.hangtag.io",
        "date": "Mon, 13 Apr 2020 09:24:15 GMT"
        },
      "body": " {\"ResponseCode\":[\"000 : Success\"],\"Lots\":[{\"LotNumber\":\"IPCCCALG000264\",\"HangTagLotName\":\"200 - 3rd Ave\",\"FullName\":\"200 - 3rd Avenue SW\",\"CityName\":\"Calgary\",\"Barrier\":false,\"Latitude\":51.0504250000,\"Longitude\":-114.0646100000,\"TimeZoneName\":\"(GMT-07:00) Mountain Time (US & Canada)\",\"MarketingDescription\":\"\",\"Restrictions\":null,\"Amenities\":null,\"Features\":null,\"Zones\":[],\"Entrances\":[{\"CoordinateId\":\"IPCC000167\",\"Longitude\":-114.0646100000,\"Latitude\":51.0504250000,\"Description\":\"Enter/Exit use 3 Ave\",\"ZoneId\":null}],\"LotHours\":null}],\"AvailableVersion\":null}"
    }
    
  }