{

    "request": {
        "method": "GET",
        "url": "/api/hangTagAccounts/GetPasswordResetCode?appMajorVersion=1&appMinorVersion=1&appType=0&appUTCOffset=-7&emailAddress=suraj.narayanan%40reeftechnology.com&language=1&operatingSystem=1"
    },
    "response": {
      "status": 200,
      "headers": {
        "Cache-Control" : "no-cache",
        "Pragma" : "no-cache",
        "Content-Type" : "application/json; charset=utf-8",
        "Expires" : "-1",
        "vary": "Accept-Encoding",
        "Server" : "Microsoft-IIS/10.0",
        "X-AspNet-Version" : "4.0.30319",
        "request-context": "appId=cid-v1:678673fc-c07c-42bb-bf34-444a4900b7c4",
        "access-control-expose-headers": "Request-Context",
        "set-cookie": "ARRAffinity=beeff3476d5aa8bb8fe21fe39a9856f0b551707a1eb8622865ab9734ed4556f5;Path=/;HttpOnly;Domain=hangtag-uat-api.hangtag.io",
        "date": "Wed, 15 Apr 2020 17:24:21 GMT"
        },
      "body": "{\"ResponseCode\":[\"000 : Success\"],\"AvailableVersion\":null}"
    }
    
  }


  