


  {

    "request": {
        "method": "POST",
        "url": "/api/hangTagAccounts/SetVehicle",
        "bodyPatterns" : [ {
          "equalToJson" :  " {\"Action\":1,\"LicensePlate\":\"90090\",\"StateProvince\":\"AB\",\"AppVersion\":{\"AppMajorVersion\":1,\"AppMinorVersion\":1,\"AppType\":0,\"AppUTCOffSet\":-7,\"LanguageCode\":1,\"OperatingSystem\":1}}",
          "ignoreArrayOrder" : true,
          "ignoreExtraElements" : true
        } ]
    },
    "response": {
      "status": 200,
      "headers": {
        "Cache-Control" : "no-cache",
        "Pragma" : "no-cache",
        "Content-Type" : "application/json; charset=utf-8",
        "Expires" : "-1",
        "vary": "Accept-Encoding",
        "Server" : "Microsoft-IIS/10.0",
        "X-AspNet-Version" : "4.0.30319",
        "request-context": "appId=cid-v1:678673fc-c07c-42bb-bf34-444a4900b7c4",
        "access-control-expose-headers": "Request-Context",
        "set-cookie": "ARRAffinity=beeff3476d5aa8bb8fe21fe39a9856f0b551707a1eb8622865ab9734ed4556f5;Path=/;HttpOnly;Domain=hangtag-uat-api.hangtag.io",
        "date": "Mon, 13 Apr 2020 09:23:07 GMT"
        },
      "body": " {\"ResponseCode\":[\"000 : Success\"],\"MaxVehicles\":4,\"ActiveVehicles\":[{\"LicensePlate\":\"34223W\",\"NormalizedPlate\":\"34223W\",\"StateProvince\":\"FL\"}],\"AvailableVersion\":null}"
    }
    
  }
  
  