{

    "request": {
        "method": "GET",
        "url": "/api/Lots/GetMapLots?appMajorVersion=1&appMinorVersion=1&appType=0&appUTCOffset=-7&language=1&latitude=37.78583393502708&longitude=-122.406417131424&openOnly=true&operatingSystem=1&range=3"
    },
    "response": {
      "status": 200,
      "headers": {
        "Cache-Control" : "no-cache",
        "Pragma" : "no-cache",
        "Content-Type" : "application/json; charset=utf-8",
        "Expires" : "-1",
        "vary": "Accept-Encoding",
        "Server" : "Microsoft-IIS/10.0",
        "X-AspNet-Version" : "4.0.30319",
        "request-context": "appId=cid-v1:678673fc-c07c-42bb-bf34-444a4900b7c4",
        "access-control-expose-headers": "Request-Context",
        "set-cookie": "ARRAffinity=beeff3476d5aa8bb8fe21fe39a9856f0b551707a1eb8622865ab9734ed4556f5;Path=/;HttpOnly;Domain=hangtag-uat-api.hangtag.io",
        "date": "Mon, 13 Apr 2020 09:20:55 GMT"
        },
      "body": " {\"ResponseCode\":[\"000 : Success\"],\"Lots\":[{\"LotNumber\":\"IPCCVANC000786\",\"HangTagLotName\":\"Regent Medical Building\",\"Barrier\":false,\"Latitude\":49.2634890000,\"Longitude\":-123.1552030000,\"RateScanRate\":2.54,\"IsOpen\":true},{\"LotNumber\":\"IPCCVANC001616\",\"HangTagLotName\":\"2996 Granville Street\",\"Barrier\":false,\"Latitude\":49.2590630000,\"Longitude\":-123.1380850000,\"RateScanRate\":3.18,\"IsOpen\":true},{\"LotNumber\":\"APSLVANC009034\",\"HangTagLotName\":\"2904 Granville\",\"Barrier\":false,\"Latitude\":49.2596950000,\"Longitude\":-123.1377830000,\"RateScanRate\":7.62,\"IsOpen\":true},{\"LotNumber\":\"IPCCVANC002214\",\"HangTagLotName\":\"Granville10th\",\"Barrier\":false,\"Latitude\":49.2625910000,\"Longitude\":-123.1397520000,\"RateScanRate\":3.0,\"IsOpen\":true},{\"LotNumber\":\"IPCCVANC000198\",\"HangTagLotName\":\"EC WOMAN\",\"Barrier\":false,\"Latitude\":49.2624460000,\"Longitude\":-123.1378570000,\"RateScanRate\":8.0,\"IsOpen\":true},{\"LotNumber\":\"APSLVANC000235\",\"HangTagLotName\":\"2148 W. 4TH\",\"Barrier\":false,\"Latitude\":49.2679000000,\"Longitude\":-123.1550400000,\"RateScanRate\":5.9,\"IsOpen\":true},{\"LotNumber\":\"IPCCVANC000112\",\"HangTagLotName\":\"1587 W 8th\",\"Barrier\":false,\"Latitude\":49.2646350000,\"Longitude\":-123.1405150000,\"RateScanRate\":2.0,\"IsOpen\":true},{\"LotNumber\":\"APSLVANC000177\",\"HangTagLotName\":\"Central 1\",\"Barrier\":false,\"Latitude\":49.2729890000,\"Longitude\":-123.1414030000,\"RateScanRate\":5.5,\"IsOpen\":true},{\"LotNumber\":\"APSLVANC009175\",\"HangTagLotName\":\"English Bay\",\"Barrier\":false,\"Latitude\":49.2881780000,\"Longitude\":-123.1410210000,\"RateScanRate\":7.62,\"IsOpen\":true},{\"LotNumber\":\"IPCCVANC000125\",\"HangTagLotName\":\"1810 Alberni\",\"Barrier\":false,\"Latitude\":49.2924200000,\"Longitude\":-123.1348990000,\"RateScanRate\":3.5,\"IsOpen\":true},{\"LotNumber\":\"IPCCVANC000186\",\"HangTagLotName\":\"VGH 12th Ave Parkade\",\"Barrier\":true,\"Latitude\":49.2599080000,\"Longitude\":-123.1242540000,\"RateScanRate\":6.0,\"IsOpen\":true},{\"LotNumber\":\"IPCCVANC000663\",\"HangTagLotName\":\"Gyu-Kaku on Broadway\",\"Barrier\":false,\"Latitude\":49.2632860000,\"Longitude\":-123.1254400000,\"RateScanRate\":5.0,\"IsOpen\":true},{\"LotNumber\":\"IPCCVANC000640\",\"HangTagLotName\":\"Park Inn on Broadway\",\"Barrier\":false,\"Latitude\":49.2632680000,\"Longitude\":-123.1235570000,\"RateScanRate\":6.36,\"IsOpen\":true},{\"LotNumber\":\"IPCCVANC001829\",\"HangTagLotName\":\"Fairview Pub on Broadway\",\"Barrier\":false,\"Latitude\":49.2632750000,\"Longitude\":-123.1230160000,\"RateScanRate\":6.36,\"IsOpen\":true},{\"LotNumber\":\"IPCCVANC001344\",\"HangTagLotName\":\"Fairmont Medical Building\",\"Barrier\":false,\"Latitude\":49.2629910000,\"Longitude\":-123.1217220000,\"RateScanRate\":6.0,\"IsOpen\":true},{\"LotNumber\":\"IPCCVANC000787\",\"HangTagLotName\":\"Scotiabank on Broadway\",\"Barrier\":false,\"Latitude\":49.2639770000,\"Longitude\":-123.1265100000,\"RateScanRate\":7.62,\"IsOpen\":true},{\"LotNumber\":\"IPCCVANC000095\",\"HangTagLotName\":\"Michaels\",\"Barrier\":false,\"Latitude\":49.2641650000,\"Longitude\":-123.1191840000,\"RateScanRate\":3.5,\"IsOpen\":true},{\"LotNumber\":\"IPCCVANC001004\",\"HangTagLotName\":\"125 E. 10th Ave\",\"Barrier\":false,\"Latitude\":49.2620900000,\"Longitude\":-123.1016820000,\"RateScanRate\":3.0,\"IsOpen\":true},{\"LotNumber\":\"APSLVANC000224\",\"HangTagLotName\":\"5th & Quebec\",\"Barrier\":false,\"Latitude\":49.2661020000,\"Longitude\":-123.1027010000,\"RateScanRate\":5.08,\"IsOpen\":true},{\"LotNumber\":\"IPCCVANC000610\",\"HangTagLotName\":\"Science World\",\"Barrier\":false,\"Latitude\":49.2720760000,\"Longitude\":-123.1021450000,\"RateScanRate\":0.0,\"IsOpen\":true},{\"LotNumber\":\"APSLVANC009122\",\"HangTagLotName\":\"5th & Main\",\"Barrier\":false,\"Latitude\":49.2663100000,\"Longitude\":-123.1016710000,\"RateScanRate\":4.0,\"IsOpen\":true},{\"LotNumber\":\"APSLVANC000233\",\"HangTagLotName\":\"Lot 6\",\"Barrier\":false,\"Latitude\":49.2679370000,\"Longitude\":-123.0939360000,\"RateScanRate\":0.0,\"IsOpen\":true},{\"LotNumber\":\"IPCCVANC001111\",\"HangTagLotName\":\"369 Terminal\",\"Barrier\":true,\"Latitude\":49.2721570000,\"Longitude\":-123.0951100000,\"RateScanRate\":3.0,\"IsOpen\":true},{\"LotNumber\":\"IPCCVANC001779\",\"HangTagLotName\":\"London Place\",\"Barrier\":false,\"Latitude\":49.279"
    }
    
  }

  